// Jest Snapshot v1, https://goo.gl/fbAQLP

exports[`should render HelpPage correctly 1`] = `
<div>
  <p>
    This is from help component
  </p>
  <p>
    This is from help component
  </p>
</div>
`;
